{"preference":null,"pagination":{"total":132130,"limit":10,"offset":0,"total_pages":13213,"current_page":1},"data":[{"_score":2495.394,"id":66489,"title":"Georgia O'Keeffe\u2014Torso","date_display":"1918","medium_display":"Gelatin silver print","is_public_domain":true,"image_id":"4d9dcaa1-5a21-5596-5b60-b3808492d443"},{"_score":2237.7544,"id":66303,"title":"The Hand of Man","date_display":"1902, printed 1920\/39","medium_display":"Gelatin silver print","is_public_domain":true,"image_id":"7ae8cca1-a81b-9d01-5246-316b82602a13"},{"_score":2233.4856,"id":66424,"title":"Georgia O'Keeffe","date_display":"1918","medium_display":"Gelatin silver print","is_public_domain":true,"image_id":"7e30ee9a-e19c-2a0c-1ff5-7cc55a23bffd"},{"_score":2229.8499,"id":66434,"title":"Georgia O'Keeffe\u2014Hands and Thimble","date_display":"1919","medium_display":"Palladium print","is_public_domain":true,"image_id":"62fdbcae-4491-91c3-6fdc-728e1cf4b547"},{"_score":2228.1306,"id":66284,"title":"Sun Rays\u2014Paula, Berlin","date_display":"1889, printed 1920\/39","medium_display":"Gelatin silver print","is_public_domain":true,"image_id":"c68643ad-3cc8-986a-8542-f10f47e6e7e8"},{"_score":2181.5894,"id":66394,"title":"Rebecca Salsbury Strand","date_display":"1922","medium_display":"Gelatin silver print","is_public_domain":true,"image_id":"f6d06aad-e3e6-69d9-2caa-9b10e3059a34"},{"_score":2147.3098,"id":66315,"title":"The Flatiron","date_display":"1903, printed 1920\/39","medium_display":"Gelatin silver print","is_public_domain":true,"image_id":"e9bddf43-8c16-7a8d-a59b-858909c8cad9"},{"_score":2118.9346,"id":66275,"title":"Rebecca Salsbury Strand","date_display":"1922","medium_display":"Gelatin silver print","is_public_domain":true,"image_id":"db914850-f585-6bc6-4d7b-80df56db042b"},{"_score":2107.99,"id":66435,"title":"Georgia O'Keeffe","date_display":"1918","medium_display":"Palladium print","is_public_domain":true,"image_id":"62bd45e9-5530-fe14-0de6-75cb93c47846"},{"_score":2068.6555,"id":66296,"title":"A Wet Day on the Boulevard, Paris","date_display":"1894, printed 1918\/32","medium_display":"Gelatin silver print","is_public_domain":true,"image_id":"25dd9cc9-f1de-23ed-8e85-010a234c1d05"}],"info":{"license_text":"The `description` field in this response is licensed under a Creative Commons Attribution 4.0 Generic License (CC-By) and the Terms and Conditions of artic.edu. All other data in this response is licensed under a Creative Commons Zero (CC0) 1.0 designation and the Terms and Conditions of artic.edu.","license_links":["https:\/\/creativecommons.org\/publicdomain\/zero\/1.0\/","https:\/\/www.artic.edu\/terms"],"version":"1.14"},"config":{"iiif_url":"https:\/\/www.artic.edu\/iiif\/2","website_url":"http:\/\/www.artic.edu"}}
